354/Messwerte/ALL0014/F0014CH1.CSV

Record Length,2.500000e+03,,  -0.000030000000,   7.24000,
Sample Interval,1.000000e-07,,  -0.000029900000,   7.12000,
Trigger Point,3.000000000000e+02,,  -0.000029800000,   7.24000,
,,,  -0.000029700000,   7.24000,
,,,  -0.000029600000,   7.20000,
,,,  -0.000029500000,   7.20000,
Source,CH1,,  -0.000029400000,   7.16000,
Vertical Units,V,,  -0.000029300000,   7.24000,
Vertical Scale,1.000000e+00,,  -0.000029200000,   7.20000,
Vertical Offset,-3.600000e+00,,  -0.000029100000,   7.28000,
Horizontal Units,s,,  -0.000029000000,   7.16000,
Horizontal Scale,2.500000e-05,,  -0.000028900000,   7.20000,
Pt Fmt,Y,,  -0.000028800000,   7.20000,
Yzero,0.000000e+00,,  -0.000028700000,   7.16000,
Probe Atten,1.000000e+01,,  -0.000028600000,   7.16000,
Model Number,TDS1001B,,  -0.000028500000,   7.24000,
Serial Number,C059821,,  -0.000028400000,   7.12000,
Firmware Version,FV:v22.01,,  -0.000028300000,   7.20000,
,,,-00.000028200000,   7.12000,
,,,-00.000028100000,   7.24000,
,,,-00.000028000000,   7.20000,
,,,-00.000027900000,   7.20000,
,,,-00.000027800000,   7.20000,
,,,-00.000027700000,   7.20000,
,,,-00.000027600000,   7.20000,
,,,-00.000027500000,   7.24000,
,,,-00.000027400000,   7.20000,
,,,-00.000027300000,   7.24000,
,,,-00.000027200000,   7.20000,
,,,-00.000027100000,   7.16000,
,,,-00.000027000000,   7.20000,
,,,-00.000026900000,   7.20000,
,,,-00.000026800000,   7.16000,
,,,-00.000026700000,   7.12000,
,,,-00.000026600000,   7.28000,
,,,-00.000026500000,   7.20000,
,,,-00.000026400000,   7.24000,
,,,-00.000026300000,   7.20000,
,,,-00.000026200000,   7.16000,
,,,-00.000026100000,   7.20000,
,,,-00.000026000000,   7.20000,
,,,-00.000025900000,   7.16000,
,,,-00.000025800000,   7.16000,
,,,-00.000025700000,   7.20000,
,,,-00.000025600000,   7.20000,
,,,-00.000025500000,   7.20000,
,,,-00.000025400000,   7.16000,
,,,-00.000025300000,   7.16000,
,,,-00.000025200000,   7.16000,
,,,-00.000025100000,   7.12000,
,,,-00.000025000000,   7.16000,
,,,-00.000024900000,   7.16000,
,,,-00.000024800000,   7.24000,
,,,-00.000024700000,   7.24000,
,,,-00.000024600000,   7.16000,
,,,-00.000024500000,   7.24000,
,,,-00.000024400000,   7.16000,
,,,-00.000024300000,   7.24000,
,,,-00.000024200000,   7.20000,
,,,-00.000024100000,   7.20000,
,,,-00.000024000000,   7.16000,
,,,-00.000023900000,   7.16000,
,,,-00.000023800000,   7.16000,
,,,-00.000023700000,   7.16000,
,,,-00.000023600000,   7.20000,
,,,-00.000023500000,   7.16000,
,,,-00.000023400000,   7.20000,
,,,-00.000023300000,   7.16000,
,,,-00.000023200000,   7.20000,
,,,-00.000023100000,   7.20000,
,,,-00.000023000000,   7.16000,
,,,-00.000022900000,   7.16000,
,,,-00.000022800000,   7.16000,
,,,-00.000022700000,   7.16000,
,,,-00.000022600000,   7.24000,
,,,-00.000022500000,   7.20000,
,,,-00.000022400000,   7.20000,
,,,-00.000022300000,   7.16000,
,,,-00.000022200000,   7.16000,
,,,-00.000022100000,   7.20000,
,,,-00.000022000000,   7.16000,
,,,-00.000021900000,   7.20000,
,,,-00.000021800000,   7.16000,
,,,-00.000021700000,   7.16000,
,,,-00.000021600000,   7.16000,
,,,-00.000021500000,   7.20000,
,,,-00.000021400000,   7.24000,
,,,-00.000021300000,   7.24000,
,,,-00.000021200000,   7.16000,
,,,-00.000021100000,   7.16000,
,,,-00.000021000000,   7.24000,
,,,-00.000020900000,   7.20000,
,,,-00.000020800000,   7.20000,
,,,-00.000020700000,   7.20000,
,,,-00.000020600000,   7.20000,
,,,-00.000020500000,   7.20000,
,,,-00.000020400000,   7.16000,
,,,-00.000020300000,   7.20000,
,,,-00.000020200000,   7.12000,
,,,-00.000020100000,   7.16000,
,,,-00.000020000000,   7.16000,
,,,-00.000019900000,   7.20000,
,,,-00.000019800000,   7.20000,
,,,-00.000019700000,   7.12000,
,,,-00.000019600000,   7.20000,
,,,-00.000019500000,   7.16000,
,,,-00.000019400000,   7.24000,
,,,-00.000019300000,   7.24000,
,,,-00.000019200000,   7.20000,
,,,-00.000019100000,   7.16000,
,,,-00.000019000000,   7.20000,
,,,-00.000018900000,   7.20000,
,,,-00.000018800000,   7.16000,
,,,-00.000018700000,   7.12000,
,,,-00.000018600000,   7.20000,
,,,-00.000018500000,   7.16000,
,,,-00.000018400000,   7.24000,
,,,-00.000018300000,   7.16000,
,,,-00.000018200000,   7.20000,
,,,-00.000018100000,   7.24000,
,,,-00.000018000000,   7.20000,
,,,-00.000017900000,   7.16000,
,,,-00.000017800000,   7.20000,
,,,-00.000017700000,   7.20000,
,,,-00.000017600000,   7.16000,
,,,-00.000017500000,   7.20000,
,,,-00.000017400000,   7.20000,
,,,-00.000017300000,   7.20000,
,,,-00.000017200000,   7.12000,
,,,-00.000017100000,   7.12000,
,,,-00.000017000000,   7.16000,
,,,-00.000016900000,   7.12000,
,,,-00.000016800000,   7.04000,
,,,-00.000016700000,   7.12000,
,,,-00.000016600000,   7.12000,
,,,-00.000016500000,   7.12000,
,,,-00.000016400000,   7.08000,
,,,-00.000016300000,   7.04000,
,,,-00.000016200000,   7.00000,
,,,-00.000016100000,   7.00000,
,,,-00.000016000000,   7.00000,
,,,-00.000015900000,   7.00000,
,,,-00.000015800000,   6.96000,
,,,-00.000015700000,   6.88000,
,,,-00.000015600000,   6.84000,
,,,-00.000015500000,   6.88000,
,,,-00.000015400000,   6.80000,
,,,-00.000015300000,   6.76000,
,,,-00.000015200000,   6.76000,
,,,-00.000015100000,   6.72000,
,,,-00.000015000000,   6.64000,
,,,-00.000014900000,   6.68000,
,,,-00.000014800000,   6.68000,
,,,-00.000014700000,   6.56000,
,,,-00.000014600000,   6.56000,
,,,-00.000014500000,   6.52000,
,,,-00.000014400000,   6.48000,
,,,-00.000014300000,   6.40000,
,,,-00.000014200000,   6.36000,
,,,-00.000014100000,   6.28000,
,,,-00.000014000000,   6.28000,
,,,-00.000013900000,   6.24000,
,,,-00.000013800000,   6.24000,
,,,-00.000013700000,   6.12000,
,,,-00.000013600000,   6.12000,
,,,-00.000013500000,   6.04000,
,,,-00.000013400000,   6.00000,
,,,-00.000013300000,   5.84000,
,,,-00.000013200000,   5.84000,
,,,-00.000013100000,   5.76000,
,,,-00.000013000000,   5.76000,
,,,-00.000012900000,   5.64000,
,,,-00.000012800000,   5.52000,
,,,-00.000012700000,   5.56000,
,,,-00.000012600000,   5.48000,
,,,-00.000012500000,   5.40000,
,,,-00.000012400000,   5.32000,
,,,-00.000012300000,   5.24000,
,,,-00.000012200000,   5.24000,
,,,-00.000012100000,   5.16000,
,,,-00.000012000000,   5.12000,
,,,-00.000011900000,   5.04000,
,,,-00.000011800000,   4.96000,
,,,-00.000011700000,   4.92000,
,,,-00.000011600000,   4.80000,
,,,-00.000011500000,   4.76000,
,,,-00.000011400000,   4.68000,
,,,-00.000011300000,   4.60000,
,,,-00.000011200000,   4.56000,
,,,-00.000011100000,   4.40000,
,,,-00.000011000000,   4.40000,
,,,-00.000010900000,   4.28000,
,,,-00.000010800000,   4.28000,
,,,-00.000010700000,   4.20000,
,,,-00.000010600000,   4.08000,
,,,-00.000010500000,   4.04000,
,,,-00.000010400000,   3.96000,
,,,-00.000010300000,   3.92000,
,,,-00.000010200000,   3.84000,
,,,-00.000010100000,   3.72000,
,,,-00.000010000000,   3.68000,
,,,-00.000009900000,   3.60000,
,,,-00.000009800000,   3.48000,
,,,-00.000009700000,   3.44000,
,,,-00.000009600000,   3.40000,
,,,-00.000009500000,   3.28000,
,,,-00.000009400000,   3.24000,
,,,-00.000009300000,   3.20000,
,,,-00.000009200000,   3.12000,
,,,-00.000009100000,   3.04000,
,,,-00.000009000000,   2.96000,
,,,-00.000008900000,   2.88000,
,,,-00.000008800000,   2.84000,
,,,-00.000008700000,   2.72000,
,,,-00.000008600000,   2.64000,
,,,-00.000008500000,   2.60000,
,,,-00.000008400000,   2.56000,
,,,-00.000008300000,   2.44000,
,,,-00.000008200000,   2.44000,
,,,-00.000008100000,   2.36000,
,,,-00.000008000000,   2.28000,
,,,-00.000007900000,   2.24000,
,,,-00.000007800000,   2.20000,
,,,-00.000007700000,   2.08000,
,,,-00.000007600000,   2.04000,
,,,-00.000007500000,   1.96000,
,,,-00.000007400000,   1.92000,
,,,-00.000007300000,   1.84000,
,,,-00.000007200000,   1.76000,
,,,-00.000007100000,   1.76000,
,,,-00.000007000000,   1.72000,
,,,-00.000006900000,   1.60000,
,,,-00.000006800000,   1.60000,
,,,-00.000006700000,   1.60000,
,,,-00.000006600000,   1.48000,
,,,-00.000006500000,   1.44000,
,,,-00.000006400000,   1.36000,
,,,-00.000006300000,   1.36000,
,,,-00.000006200000,   1.32000,
,,,-00.000006100000,   1.24000,
,,,-00.000006000000,   1.16000,
,,,-00.000005900000,   1.12000,
,,,-00.000005800000,   1.08000,
,,,-00.000005700000,   1.08000,
,,,-00.000005600000,   1.04000,
,,,-00.000005500000,   0.96000,
,,,-00.000005400000,   0.92000,
,,,-00.000005300000,   0.88000,
,,,-00.000005200000,   0.88000,
,,,-00.000005100000,   0.80000,
,,,-00.000005000000,   0.84000,
,,,-00.000004900000,   0.76000,
,,,-00.000004800000,   0.76000,
,,,-00.000004700000,   0.72000,
,,,-00.000004600000,   0.64000,
,,,-00.000004500000,   0.68000,
,,,-00.000004400000,   0.72000,
,,,-00.000004300000,   0.60000,
,,,-00.000004200000,   0.60000,
,,,-00.000004100000,   0.56000,
,,,-00.000004000000,   0.56000,
,,,-00.000003900000,   0.52000,
,,,-00.000003800000,   0.56000,
,,,-00.000003700000,   0.52000,
,,,-00.000003600000,   0.48000,
,,,-00.000003500000,   0.52000,
,,,-00.000003400000,   0.44000,
,,,-00.000003300000,   0.48000,
,,,-00.000003200000,   0.52000,
,,,-00.000003100000,   0.48000,
,,,-00.000003000000,   0.48000,
,,,-00.000002900000,   0.48000,
,,,-00.000002800000,   0.48000,
,,,-00.000002700000,   0.44000,
,,,-00.000002600000,   0.48000,
,,,-00.000002500000,   0.44000,
,,,-00.000002400000,   0.44000,
,,,-00.000002300000,   0.40000,
,,,-00.000002200000,   0.44000,
,,,-00.000002100000,   0.52000,
,,,-00.000002000000,   0.48000,
,,,-00.000001900000,   0.48000,
,,,-00.000001800000,   0.56000,
,,,-00.000001700000,   0.60000,
,,,-00.000001600000,   0.56000,
,,,-00.000001500000,   0.56000,
,,,-00.000001400000,   0.60000,
,,,-00.000001300000,   0.60000,
,,,-00.000001200000,   0.68000,
,,,-00.000001100000,   0.68000,
,,,-00.000001000000,   0.68000,
,,,-00.000000900000,   0.68000,
,,,-00.000000800000,   0.72000,
,,,-00.000000700000,   0.84000,
,,,-00.000000600000,   0.80000,
,,,-00.000000500000,   0.80000,
,,,-00.000000400000,   0.88000,
,,,-00.000000300000,   0.92000,
,,,-00.000000200000,   0.92000,
,,,-00.000000100000,   0.96000,
,,,-00.000000000000,   1.00000,
,,,00.000000100000,   1.00000,
,,,00.000000200000,   1.04000,
,,,00.000000300000,   1.08000,
,,,00.000000400000,   1.16000,
,,,00.000000500000,   1.24000,
,,,00.000000600000,   1.28000,
,,,00.000000700000,   1.32000,
,,,00.000000800000,   1.28000,
,,,00.000000900000,   1.36000,
,,,00.000001000000,   1.40000,
,,,00.000001100000,   1.44000,
,,,00.000001200000,   1.52000,
,,,00.000001300000,   1.56000,
,,,00.000001400000,   1.60000,
,,,00.000001500000,   1.68000,
,,,00.000001600000,   1.76000,
,,,00.000001700000,   1.84000,
,,,00.000001800000,   1.84000,
,,,00.000001900000,   1.88000,
,,,00.000002000000,   1.96000,
,,,00.000002100000,   2.00000,
,,,00.000002200000,   2.04000,
,,,00.000002300000,   2.20000,
,,,00.000002400000,   2.16000,
,,,00.000002500000,   2.24000,
,,,00.000002600000,   2.36000,
,,,00.000002700000,   2.36000,
,,,00.000002800000,   2.44000,
,,,00.000002900000,   2.52000,
,,,00.000003000000,   2.52000,
,,,00.000003100000,   2.56000,
,,,00.000003200000,   2.68000,
,,,00.000003300000,   2.80000,
,,,00.000003400000,   2.76000,
,,,00.000003500000,   2.92000,
,,,00.000003600000,   2.92000,
,,,00.000003700000,   3.00000,
,,,00.000003800000,   3.08000,
,,,00.000003900000,   3.16000,
,,,00.000004000000,   3.24000,
,,,00.000004100000,   3.24000,
,,,00.000004200000,   3.36000,
,,,00.000004300000,   3.40000,
,,,00.000004400000,   3.48000,
,,,00.000004500000,   3.52000,
,,,00.000004600000,   3.64000,
,,,00.000004700000,   3.72000,
,,,00.000004800000,   3.76000,
,,,00.000004900000,   3.80000,
,,,00.000005000000,   3.88000,
,,,00.000005100000,   3.96000,
,,,00.000005200000,   4.00000,
,,,00.000005300000,   4.04000,
,,,00.000005400000,   4.12000,
,,,00.000005500000,   4.20000,
,,,00.000005600000,   4.28000,
,,,00.000005700000,   4.32000,
,,,00.000005800000,   4.40000,
,,,00.000005900000,   4.48000,
,,,00.000006000000,   4.48000,
,,,00.000006100000,   4.60000,
,,,00.000006200000,   4.68000,
,,,00.000006300000,   4.72000,
,,,00.000006400000,   4.80000,
,,,00.000006500000,   4.84000,
,,,00.000006600000,   4.88000,
,,,00.000006700000,   4.92000,
,,,00.000006800000,   5.00000,
,,,00.000006900000,   5.08000,
,,,00.000007000000,   5.12000,
,,,00.000007100000,   5.16000,
,,,00.000007200000,   5.20000,
,,,00.000007300000,   5.28000,
,,,00.000007400000,   5.32000,
,,,00.000007500000,   5.36000,
,,,00.000007600000,   5.52000,
,,,00.000007700000,   5.52000,
,,,00.000007800000,   5.60000,
,,,00.000007900000,   5.64000,
,,,00.000008000000,   5.68000,
,,,00.000008100000,   5.72000,
,,,00.000008200000,   5.76000,
,,,00.000008300000,   5.76000,
,,,00.000008400000,   5.80000,
,,,00.000008500000,   5.84000,
,,,00.000008600000,   6.00000,
,,,00.000008700000,   5.92000,
,,,00.000008800000,   6.00000,
,,,00.000008900000,   6.00000,
,,,00.000009000000,   6.04000,
,,,00.000009100000,   6.08000,
,,,00.000009200000,   6.12000,
,,,00.000009300000,   6.24000,
,,,00.000009400000,   6.24000,
,,,00.000009500000,   6.24000,
,,,00.000009600000,   6.28000,
,,,00.000009700000,   6.32000,
,,,00.000009800000,   6.32000,
,,,00.000009900000,   6.36000,
,,,00.000010000000,   6.36000,
,,,00.000010100000,   6.40000,
,,,00.000010200000,   6.40000,
,,,00.000010300000,   6.48000,
,,,00.000010400000,   6.44000,
,,,00.000010500000,   6.52000,
,,,00.000010600000,   6.52000,
,,,00.000010700000,   6.56000,
,,,00.000010800000,   6.52000,
,,,00.000010900000,   6.56000,
,,,00.000011000000,   6.56000,
,,,00.000011100000,   6.64000,
,,,00.000011200000,   6.52000,
,,,00.000011300000,   6.64000,
,,,00.000011400000,   6.56000,
,,,00.000011500000,   6.64000,
,,,00.000011600000,   6.60000,
,,,00.000011700000,   6.64000,
,,,00.000011800000,   6.60000,
,,,00.000011900000,   6.60000,
,,,00.000012000000,   6.64000,
,,,00.000012100000,   6.60000,
,,,00.000012200000,   6.64000,
,,,00.000012300000,   6.68000,
,,,00.000012400000,   6.64000,
,,,00.000012500000,   6.60000,
,,,00.000012600000,   6.64000,
,,,00.000012700000,   6.64000,
,,,00.000012800000,   6.56000,
,,,00.000012900000,   6.52000,
,,,00.000013000000,   6.60000,
,,,00.000013100000,   6.52000,
,,,00.000013200000,   6.60000,
,,,00.000013300000,   6.52000,
,,,00.000013400000,   6.48000,
,,,00.000013500000,   6.48000,
,,,00.000013600000,   6.44000,
,,,00.000013700000,   6.44000,
,,,00.000013800000,   6.44000,
,,,00.000013900000,   6.40000,
,,,00.000014000000,   6.32000,
,,,00.000014100000,   6.36000,
,,,00.000014200000,   6.32000,
,,,00.000014300000,   6.28000,
,,,00.000014400000,   6.24000,
,,,00.000014500000,   6.24000,
,,,00.000014600000,   6.20000,
,,,00.000014700000,   6.16000,
,,,00.000014800000,   6.12000,
,,,00.000014900000,   6.08000,
,,,00.000015000000,   6.08000,
,,,00.000015100000,   6.00000,
,,,00.000015200000,   6.00000,
,,,00.000015300000,   5.92000,
,,,00.000015400000,   5.92000,
,,,00.000015500000,   5.84000,
,,,00.000015600000,   5.76000,
,,,00.000015700000,   5.76000,
,,,00.000015800000,   5.76000,
,,,00.000015900000,   5.72000,
,,,00.000016000000,   5.68000,
,,,00.000016100000,   5.64000,
,,,00.000016200000,   5.56000,
,,,00.000016300000,   5.56000,
,,,00.000016400000,   5.36000,
,,,00.000016500000,   5.36000,
,,,00.000016600000,   5.32000,
,,,00.000016700000,   5.28000,
,,,00.000016800000,   5.20000,
,,,00.000016900000,   5.20000,
,,,00.000017000000,   5.16000,
,,,00.000017100000,   5.00000,
,,,00.000017200000,   5.04000,
,,,00.000017300000,   4.92000,
,,,00.000017400000,   4.88000,
,,,00.000017500000,   4.88000,
,,,00.000017600000,   4.76000,
,,,00.000017700000,   4.76000,
,,,00.000017800000,   4.72000,
,,,00.000017900000,   4.64000,
,,,00.000018000000,   4.60000,
,,,00.000018100000,   4.48000,
,,,00.000018200000,   4.44000,
,,,00.000018300000,   4.36000,
,,,00.000018400000,   4.32000,
,,,00.000018500000,   4.28000,
,,,00.000018600000,   4.20000,
,,,00.000018700000,   4.12000,
,,,00.000018800000,   4.04000,
,,,00.000018900000,   3.96000,
,,,00.000019000000,   3.96000,
,,,00.000019100000,   3.84000,
,,,00.000019200000,   3.80000,
,,,00.000019300000,   3.76000,
,,,00.000019400000,   3.72000,
,,,00.000019500000,   3.64000,
,,,00.000019600000,   3.60000,
,,,00.000019700000,   3.52000,
,,,00.000019800000,   3.40000,
,,,00.000019900000,   3.40000,
,,,00.000020000000,   3.28000,
,,,00.000020100000,   3.28000,
,,,00.000020200000,   3.20000,
,,,00.000020300000,   3.16000,
,,,00.000020400000,   3.12000,
,,,00.000020500000,   3.08000,
,,,00.000020600000,   3.00000,
,,,00.000020700000,   2.96000,
,,,00.000020800000,   2.88000,
,,,00.000020900000,   2.84000,
,,,00.000021000000,   2.72000,
,,,00.000021100000,   2.64000,
,,,00.000021200000,   2.64000,
,,,00.000021300000,   2.60000,
,,,00.000021400000,   2.48000,
,,,00.000021500000,   2.48000,
,,,00.000021600000,   2.40000,
,,,00.000021700000,   2.36000,
,,,00.000021800000,   2.28000,
,,,00.000021900000,   2.24000,
,,,00.000022000000,   2.20000,
,,,00.000022100000,   2.16000,
,,,00.000022200000,   2.12000,
,,,00.000022300000,   2.04000,
,,,00.000022400000,   2.04000,
,,,00.000022500000,   1.96000,
,,,00.000022600000,   1.96000,
,,,00.000022700000,   1.84000,
,,,00.000022800000,   1.84000,
,,,00.000022900000,   1.80000,
,,,00.000023000000,   1.76000,
,,,00.000023100000,   1.76000,
,,,00.000023200000,   1.68000,
,,,00.000023300000,   1.60000,
,,,00.000023400000,   1.60000,
,,,00.000023500000,   1.56000,
,,,00.000023600000,   1.52000,
,,,00.000023700000,   1.52000,
,,,00.000023800000,   1.44000,
,,,00.000023900000,   1.44000,
,,,00.000024000000,   1.36000,
,,,00.000024100000,   1.36000,
,,,00.000024200000,   1.28000,
,,,00.000024300000,   1.32000,
,,,00.000024400000,   1.20000,
,,,00.000024500000,   1.20000,
,,,00.000024600000,   1.20000,
,,,00.000024700000,   1.20000,
,,,00.000024800000,   1.12000,
,,,00.000024900000,   1.16000,
,,,00.000025000000,   1.08000,
,,,00.000025100000,   1.04000,
,,,00.000025200000,   1.08000,
,,,00.000025300000,   1.08000,
,,,00.000025400000,   1.08000,
,,,00.000025500000,   1.04000,
,,,00.000025600000,   1.00000,
,,,00.000025700000,   0.96000,
,,,00.000025800000,   0.96000,
,,,00.000025900000,   0.96000,
,,,00.000026000000,   1.00000,
,,,00.000026100000,   0.96000,
,,,00.000026200000,   0.92000,
,,,00.000026300000,   0.96000,
,,,00.000026400000,   1.00000,
,,,00.000026500000,   0.96000,
,,,00.000026600000,   1.00000,
,,,00.000026700000,   0.96000,
,,,00.000026800000,   0.96000,
,,,00.000026900000,   0.96000,
,,,00.000027000000,   0.96000,
,,,00.000027100000,   0.88000,
,,,00.000027200000,   0.96000,
,,,00.000027300000,   0.96000,
,,,00.000027400000,   0.92000,
,,,00.000027500000,   0.96000,
,,,00.000027600000,   1.00000,
,,,00.000027700000,   1.04000,
,,,00.000027800000,   0.96000,
,,,00.000027900000,   1.08000,
,,,00.000028000000,   1.12000,
,,,00.000028100000,   1.08000,
,,,00.000028200000,   1.12000,
,,,00.000028300000,   1.12000,
,,,00.000028400000,   1.12000,
,,,00.000028500000,   1.16000,
,,,00.000028600000,   1.16000,
,,,00.000028700000,   1.24000,
,,,00.000028800000,   1.20000,
,,,00.000028900000,   1.28000,
,,,00.000029000000,   1.32000,
,,,00.000029100000,   1.28000,
,,,00.000029200000,   1.36000,
,,,00.000029300000,   1.36000,
,,,00.000029400000,   1.40000,
,,,00.000029500000,   1.40000,
,,,00.000029600000,   1.48000,
,,,00.000029700000,   1.56000,
,,,00.000029800000,   1.48000,
,,,00.000029900000,   1.56000,
,,,00.000030000000,   1.56000,
,,,00.000030100000,   1.64000,
,,,00.000030200000,   1.68000,
,,,00.000030300000,   1.72000,
,,,00.000030400000,   1.72000,
,,,00.000030500000,   1.80000,
,,,00.000030600000,   1.88000,
,,,00.000030700000,   1.88000,
,,,00.000030800000,   1.92000,
,,,00.000030900000,   2.00000,
,,,00.000031000000,   2.00000,
,,,00.000031100000,   2.04000,
,,,00.000031200000,   2.08000,
,,,00.000031300000,   2.16000,
,,,00.000031400000,   2.16000,
,,,00.000031500000,   2.24000,
,,,00.000031600000,   2.24000,
,,,00.000031700000,   2.36000,
,,,00.000031800000,   2.36000,
,,,00.000031900000,   2.44000,
,,,00.000032000000,   2.48000,
,,,00.000032100000,   2.52000,
,,,00.000032200000,   2.56000,
,,,00.000032300000,   2.64000,
